simulations/fifo/fifo.vcd
$date
	Tue Nov 18 11:26:06 2025
$end
$version
	Icarus Verilog
$end
$timescale
	1ps
$end
$scope module tb $end
$var wire 8 ! rd_data [7:0] $end
$var wire 1 " full $end
$var wire 1 # empty $end
$var wire 5 $ count [4:0] $end
$var reg 1 % clk $end
$var reg 1 & rd_en $end
$var reg 1 ' rst_n $end
$var reg 8 ( wr_data [7:0] $end
$var reg 1 ) wr_en $end
$var integer 32 * err [31:0] $end
$var integer 32 + i [31:0] $end
$scope module fifo $end
$var wire 1 % clk $end
$var wire 5 , count [4:0] $end
$var wire 1 & rd_en $end
$var wire 1 ' rst_n $end
$var wire 8 - wr_data [7:0] $end
$var wire 1 ) wr_en $end
$var wire 1 " full $end
$var wire 1 # empty $end
$var parameter 32 . D $end
$var parameter 32 / DW $end
$var reg 5 0 cnt [4:0] $end
$var reg 8 1 rd_data [7:0] $end
$var reg 5 2 rd_ptr [4:0] $end
$var reg 5 3 wr_ptr [4:0] $end
$upscope $end
$upscope $end
$enddefinitions $end
$comment Show the parameter values. $end
$dumpall
b1000 /
b10000 .
$end
#0
$dumpvars
b0 3
b0 2
b0 1
b0 0
bx -
b0 ,
bx +
b0 *
0)
bx (
0'
0&
0%
b0 $
1#
0"
b0 !
$end
#5000
1%
#10000
0%
#15000
1%
#20000
0%
1'
#25000
1%
#30000
0%
#35000
1%
#40000
0%
1)
b10101010 (
b10101010 -
#45000
0#
b1 $
b1 ,
b1 0
b1 3
b10111011 (
b10111011 -
1%
#50000
0%
#55000
b10 3
b10 $
b10 ,
b10 0
b11001100 (
b11001100 -
1%
#60000
0%
#65000
b11 $
b11 ,
b11 0
b11 3
b11011101 (
b11011101 -
1%
#70000
0%
#75000
0)
1%
#80000
0%
#85000
1%
#90000
0%
#95000
b1 2
b10111011 !
b10111011 1
b10 $
b10 ,
b10 0
1%
1&
b1 *
#100000
0%
#105000
b1 $
b1 ,
b1 0
b10 2
b11001100 !
b11001100 1
1%
#106000
b10 *
#110000
0%
#115000
b11 2
b11011101 !
b11011101 1
1#
b0 $
b0 ,
b0 0
1%
#116000
b11 *
#120000
0%
#125000
1%
#126000
b100 *
#130000
0%
#135000
1%
#136000
0&
#140000
0%
#145000
1%
#150000
0%
#155000
1%
#156000
b0 (
b0 -
b0 +
1)
#160000
0%
#165000
0#
b1 $
b1 ,
b1 0
b100 3
b1 (
b1 -
b1 +
1%
#170000
0%
#175000
b101 3
b10 $
b10 ,
b10 0
b10 (
b10 -
b10 +
1%
#180000
0%
#185000
b11 $
b11 ,
b11 0
b110 3
b11 (
b11 -
b11 +
1%
#190000
0%
#195000
b111 3
b100 $
b100 ,
b100 0
b100 (
b100 -
b100 +
1%
#200000
0%
#205000
b101 $
b101 ,
b101 0
b1000 3
b101 (
b101 -
b101 +
1%
#210000
0%
#215000
b1001 3
b110 $
b110 ,
b110 0
b110 (
b110 -
b110 +
1%
#220000
0%
#225000
b111 $
b111 ,
b111 0
b1010 3
b111 (
b111 -
b111 +
1%
#230000
0%
#235000
b1011 3
b1000 $
b1000 ,
b1000 0
b1000 (
b1000 -
b1000 +
1%
#240000
0%
#245000
b1001 $
b1001 ,
b1001 0
b1100 3
b1001 (
b1001 -
b1001 +
1%
#250000
0%
#255000
b1101 3
b1010 $
b1010 ,
b1010 0
b1010 (
b1010 -
b1010 +
1%
#260000
0%
#265000
b1011 $
b1011 ,
b1011 0
b1110 3
b1011 (
b1011 -
b1011 +
1%
#270000
0%
#275000
b1111 3
b1100 $
b1100 ,
b1100 0
b1100 (
b1100 -
b1100 +
1%
#280000
0%
#285000
b1101 $
b1101 ,
b1101 0
b10000 3
b1101 (
b1101 -
b1101 +
1%
#290000
0%
#295000
b10001 3
b1110 $
b1110 ,
b1110 0
b1110 (
b1110 -
b1110 +
1%
#300000
0%
#305000
b1111 $
b1111 ,
b1111 0
b10010 3
b1111 (
b1111 -
b1111 +
1%
#310000
0%
#315000
0)
b10000 +
1%
#320000
0%
#325000
1%
#330000
0%
#335000
1%
b101 *
