simulations/fifo/sync_fifo.vcd
$date
	Tue Nov 18 11:24:58 2025
$end
$version
	Icarus Verilog
$end
$timescale
	1ps
$end
$scope module sync_fifo_tb $end
$var wire 8 ! rd_data [7:0] $end
$var wire 1 " full $end
$var wire 1 # empty $end
$var wire 5 $ count [4:0] $end
$var wire 1 % almost_full $end
$var wire 1 & almost_empty $end
$var parameter 32 ' CLK_PERIOD $end
$var parameter 32 ( DATA_WIDTH $end
$var parameter 32 ) DEPTH $end
$var reg 1 * clk $end
$var reg 8 + expected_data [7:0] $end
$var reg 1 , rd_en $end
$var reg 1 - rst_n $end
$var reg 8 . wr_data [7:0] $end
$var reg 1 / wr_en $end
$var integer 32 0 errors [31:0] $end
$var integer 32 1 i [31:0] $end
$scope module dut $end
$var wire 1 * clk $end
$var wire 5 2 count [4:0] $end
$var wire 1 , rd_en $end
$var wire 1 - rst_n $end
$var wire 8 3 wr_data [7:0] $end
$var wire 1 / wr_en $end
$var wire 1 " full $end
$var wire 1 # empty $end
$var wire 1 % almost_full $end
$var wire 1 & almost_empty $end
$var parameter 32 4 ALMOST_EMPTY_THRESHOLD $end
$var parameter 32 5 ALMOST_FULL_THRESHOLD $end
$var parameter 32 6 DATA_WIDTH $end
$var parameter 32 7 DEPTH $end
$var reg 5 8 count_reg [4:0] $end
$var reg 8 9 rd_data [7:0] $end
$var reg 5 : rd_ptr [4:0] $end
$var reg 5 ; wr_ptr [4:0] $end
$upscope $end
$upscope $end
$enddefinitions $end
$comment Show the parameter values. $end
$dumpall
b10000 7
b1000 6
b1110 5
b10 4
b10000 )
b1000 (
b1010 '
$end
#0
$dumpvars
b0 ;
b0 :
b0 9
b0 8
b0 3
b0 2
bx 1
b0 0
0/
b0 .
0-
0,
bx +
0*
1&
0%
b0 $
1#
0"
b0 !
$end
#5000
1*
#10000
0*
#15000
1*
#20000
0*
1-
#25000
1*
#30000
0*
#35000
1*
#40000
0*
#45000
1*
#50000
0*
#55000
1*
#60000
0*
b0 1
#65000
0#
b1 $
b1 2
b1 8
b1 ;
b1 1
1/
1*
#70000
0*
#75000
b10 ;
b10 $
b10 2
b10 8
b10 1
b1 .
b1 3
1*
#80000
0*
#85000
0&
b11 $
b11 2
b11 8
b11 ;
b11 1
b10 .
b10 3
1*
#90000
0*
#95000
b100 ;
b100 $
b100 2
b100 8
b100 1
b11 .
b11 3
1*
#100000
0*
#105000
b101 $
b101 2
b101 8
b101 ;
b101 1
b100 .
b100 3
1*
#110000
0*
#115000
b110 ;
b110 $
b110 2
b110 8
b110 1
b101 .
b101 3
1*
#120000
0*
#125000
b111 $
b111 2
b111 8
b111 ;
b111 1
b110 .
b110 3
1*
#130000
0*
#135000
b1000 ;
b1000 $
b1000 2
b1000 8
b1000 1
b111 .
b111 3
1*
#140000
0*
#145000
b1001 $
b1001 2
b1001 8
b1001 ;
b1001 1
b1000 .
b1000 3
1*
#150000
0*
#155000
b1010 ;
b1010 $
b1010 2
b1010 8
b1010 1
b1001 .
b1001 3
1*
#160000
0*
#165000
b1011 $
b1011 2
b1011 8
b1011 ;
b1011 1
b1010 .
b1010 3
1*
#170000
0*
#175000
b1100 ;
b1100 $
b1100 2
b1100 8
b1100 1
b1011 .
b1011 3
1*
#180000
0*
#185000
b1101 $
b1101 2
b1101 8
b1101 ;
b1101 1
b1100 .
b1100 3
1*
#190000
0*
#195000
b1110 ;
1%
b1110 $
b1110 2
b1110 8
b1110 1
b1101 .
b1101 3
1*
#200000
0*
#205000
b1111 $
b1111 2
b1111 8
b1111 ;
b1111 1
b1110 .
b1110 3
1*
#210000
0*
#215000
b10000 ;
1"
b10000 $
b10000 2
b10000 8
b10000 1
b1111 .
b1111 3
1*
#220000
0*
#225000
0/
1*
#230000
0*
#235000
b1 :
0"
b1111 $
b1111 2
b1111 8
b0 +
1,
1*
b0 1
#240000
0*
#245000
b1110 $
b1110 2
b1110 8
b10 :
b1 !
b1 9
1*
#246000
b1 1
b1 0
#250000
0*
#255000
b11 :
b10 !
b10 9
0%
b1101 $
b1101 2
b1101 8
b1 +
1*
#260000
0*
#265000
b1100 $
b1100 2
b1100 8
b100 :
b11 !
b11 9
1*
#266000
b10 1
b10 0
#270000
0*
#275000
b101 :
b100 !
b100 9
b1011 $
b1011 2
b1011 8
b10 +
1*
#280000
0*
#285000
b1010 $
b1010 2
b1010 8
b110 :
b101 !
b101 9
1*
#286000
b11 1
b11 0
#290000
0*
#295000
b111 :
b110 !
b110 9
b1001 $
b1001 2
b1001 8
b11 +
1*
#300000
0*
#305000
b1000 $
b1000 2
b1000 8
b1000 :
b111 !
b111 9
1*
#306000
b100 1
b100 0
#310000
0*
#315000
b1001 :
b1000 !
b1000 9
b111 $
b111 2
b111 8
b100 +
1*
#320000
0*
#325000
b110 $
b110 2
b110 8
b1010 :
b1001 !
b1001 9
1*
#326000
b101 1
b101 0
#330000
0*
#335000
b1011 :
b1010 !
b1010 9
b101 $
b101 2
b101 8
b101 +
1*
#340000
0*
#345000
b100 $
b100 2
b100 8
b1100 :
b1011 !
b1011 9
1*
#346000
b110 1
b110 0
#350000
0*
#355000
b1101 :
b1100 !
b1100 9
b11 $
b11 2
b11 8
b110 +
1*
#360000
0*
#365000
1&
b10 $
b10 2
b10 8
b1110 :
b1101 !
b1101 9
1*
#366000
b111 1
b111 0
#370000
0*
#375000
b1111 :
b1110 !
b1110 9
b1 $
b1 2
b1 8
b111 +
1*
#380000
0*
#385000
1#
b0 $
b0 2
b0 8
b10000 :
b1111 !
b1111 9
1*
#386000
b1000 1
b1000 0
#390000
0*
#395000
b1000 +
1*
#400000
0*
#405000
1*
#406000
b1001 1
b1001 0
#410000
0*
#415000
b1001 +
1*
#420000
0*
#425000
1*
#426000
b1010 1
b1010 0
#430000
0*
#435000
b1010 +
1*
#440000
0*
#445000
1*
#446000
b1011 1
b1011 0
#450000
0*
#455000
b1011 +
1*
#460000
0*
#465000
1*
#466000
b1100 1
b1100 0
#470000
0*
#475000
b1100 +
1*
#480000
0*
#485000
1*
#486000
b1101 1
b1101 0
#490000
0*
#495000
b1101 +
1*
#500000
0*
#505000
1*
#506000
b1110 1
b1110 0
#510000
0*
#515000
b1110 +
1*
#520000
0*
#525000
1*
#526000
b1111 1
b1111 0
#530000
0*
#535000
b1111 +
1*
#540000
0*
#545000
1*
#546000
0,
b10000 1
#550000
0*
#555000
1*
#556000
b0 1
#560000
0*
#565000
0#
b1 $
b1 2
b1 8
b10001 ;
b1 1
1/
b1100100 .
b1100100 3
1*
#570000
0*
#575000
b10010 ;
b10 $
b10 2
b10 8
b10 1
b1100101 .
b1100101 3
1*
#580000
0*
#585000
0&
b11 $
b11 2
b11 8
b10011 ;
b11 1
b1100110 .
b1100110 3
1*
#590000
0*
#595000
b10100 ;
b100 $
b100 2
b100 8
b100 1
b1100111 .
b1100111 3
1*
#600000
0*
#605000
b101 $
b101 2
b101 8
b10101 ;
b101 1
b1101000 .
b1101000 3
1*
#610000
0*
#615000
b10110 ;
b110 $
b110 2
b110 8
b110 1
b1101001 .
b1101001 3
1*
#620000
0*
#625000
b111 $
b111 2
b111 8
b10111 ;
b111 1
b1101010 .
b1101010 3
1*
#630000
0*
#635000
b11000 ;
b1000 $
b1000 2
b1000 8
b1000 1
b1101011 .
b1101011 3
1*
#640000
0*
#645000
0/
1*
#650000
0*
#655000
b11001 ;
b10001 :
b1100100 !
b1100100 9
1,
1/
b11001000 .
b11001000 3
1*
b1 1
#660000
0*
#665000
b10010 :
b1100101 !
b1100101 9
b11010 ;
b10 1
b11001001 .
b11001001 3
1*
#670000
0*
#675000
b11011 ;
b10011 :
b1100110 !
b1100110 9
b11 1
b11001010 .
b11001010 3
1*
#680000
0*
#685000
b10100 :
b1100111 !
b1100111 9
b11100 ;
b100 1
b11001011 .
b11001011 3
1*
#690000
0*
#695000
b11101 ;
b10101 :
b1101000 !
b1101000 9
b101 1
b11001100 .
b11001100 3
1*
#700000
0*
#705000
b10110 :
b1101001 !
b1101001 9
b11110 ;
b110 1
b11001101 .
b11001101 3
1*
#710000
0*
#715000
b11111 ;
b10111 :
b1101010 !
b1101010 9
b111 1
b11001110 .
b11001110 3
1*
#720000
0*
#725000
b11000 :
b1101011 !
b1101011 9
b0 ;
b1000 1
b11001111 .
b11001111 3
1*
#730000
0*
#735000
0,
0/
1*
#740000
0*
#745000
b111 $
b111 2
b111 8
b11001 :
b11001000 !
b11001000 9
1,
1*
#750000
0*
#755000
b11010 :
b11001001 !
b11001001 9
b110 $
b110 2
b110 8
1*
#760000
0*
#765000
b101 $
b101 2
b101 8
b11011 :
b11001010 !
b11001010 9
1*
#770000
0*
#775000
b11100 :
b11001011 !
b11001011 9
b100 $
b100 2
b100 8
1*
#780000
0*
#785000
b11 $
b11 2
b11 8
b11101 :
b11001100 !
b11001100 9
1*
#790000
0*
#795000
b11110 :
b11001101 !
b11001101 9
1&
b10 $
b10 2
b10 8
1*
#800000
0*
#805000
b1 $
b1 2
b1 8
b11111 :
b11001110 !
b11001110 9
1*
#810000
0*
#815000
b0 :
b11001111 !
b11001111 9
1#
b0 $
b0 2
b0 8
1*
#820000
0*
#825000
1*
#830000
0*
#835000
1*
#840000
0*
#845000
1*
#850000
0*
#855000
1*
#860000
0*
#865000
1*
#870000
0*
#875000
1*
#880000
0*
#885000
1*
#890000
0*
#895000
1*
#900000
0*
#905000
0,
1*
#910000
0*
#915000
b1 ;
0#
b1 $
b1 2
b1 8
1/
b0 .
b0 3
1*
b1 1
#920000
0*
#925000
b10 $
b10 2
b10 8
b10 ;
b10 1
b1 .
b1 3
1*
#930000
0*
#935000
b11 ;
0&
b11 $
b11 2
b11 8
b11 1
b10 .
b10 3
1*
#940000
0*
#945000
b100 $
b100 2
b100 8
b100 ;
b100 1
b11 .
b11 3
1*
#950000
0*
#955000
b101 ;
b101 $
b101 2
b101 8
b101 1
b100 .
b100 3
1*
#960000
0*
#965000
b110 $
b110 2
b110 8
b110 ;
b110 1
b101 .
b101 3
1*
#970000
0*
#975000
b111 ;
b111 $
b111 2
b111 8
b111 1
b110 .
b110 3
1*
#980000
0*
#985000
b1000 $
b1000 2
b1000 8
b1000 ;
b1000 1
b111 .
b111 3
1*
#990000
0*
#995000
b1001 ;
b1001 $
b1001 2
b1001 8
b1001 1
b1000 .
b1000 3
1*
#1000000
0*
#1005000
b1010 $
b1010 2
b1010 8
b1010 ;
b1010 1
b1001 .
b1001 3
1*
#1010000
0*
#1015000
b1011 ;
b1011 $
b1011 2
b1011 8
b1011 1
b1010 .
b1010 3
1*
#1020000
0*
#1025000
b1100 $
b1100 2
b1100 8
b1100 ;
b1100 1
b1011 .
b1011 3
1*
#1030000
0*
#1035000
b1101 ;
b1101 $
b1101 2
b1101 8
b1101 1
b1100 .
b1100 3
1*
#1040000
0*
#1045000
1%
b1110 $
b1110 2
b1110 8
b1110 ;
b1110 1
b1101 .
b1101 3
1*
#1050000
0*
#1055000
0/
1*
